Src/RISCV_Core.vcd
$date
	Sun Jan 28 14:46:37 2024
$end
$version
	Icarus Verilog
$end
$timescale
	1ns
$end
$scope module RISCV_Core_Testbench $end
$var wire 32 ! memoryData [31:0] $end
$var wire 32 " x0_zero [31:0] $end
$var wire 32 # x10_a0 [31:0] $end
$var wire 32 $ x11_a1 [31:0] $end
$var wire 32 % x12_a2 [31:0] $end
$var wire 32 & x13_a3 [31:0] $end
$var wire 32 ' x14_a4 [31:0] $end
$var wire 32 ( x15_a5 [31:0] $end
$var wire 32 ) x16_a6 [31:0] $end
$var wire 32 * x17_a7 [31:0] $end
$var wire 32 + x18_s2 [31:0] $end
$var wire 32 , x19_s3 [31:0] $end
$var wire 32 - x1_ra [31:0] $end
$var wire 32 . x20_s4 [31:0] $end
$var wire 32 / x21_s5 [31:0] $end
$var wire 32 0 x22_s6 [31:0] $end
$var wire 32 1 x23_s7 [31:0] $end
$var wire 32 2 x24_s8 [31:0] $end
$var wire 32 3 x25_s9 [31:0] $end
$var wire 32 4 x26_s10 [31:0] $end
$var wire 32 5 x27_s11 [31:0] $end
$var wire 32 6 x28_t3 [31:0] $end
$var wire 32 7 x29_t4 [31:0] $end
$var wire 32 8 x2_sp [31:0] $end
$var wire 32 9 x30_t5 [31:0] $end
$var wire 32 : x31_t6 [31:0] $end
$var wire 32 ; x3_gp [31:0] $end
$var wire 32 < x4_tp [31:0] $end
$var wire 32 = x5_t0 [31:0] $end
$var wire 32 > x6_t1 [31:0] $end
$var wire 32 ? x7_t2 [31:0] $end
$var wire 32 @ x8_s0 [31:0] $end
$var wire 32 A x9_s1 [31:0] $end
$var wire 1 B trap $end
$var wire 1 C memoryReadWrite $end
$var wire 1 D memoryEnable $end
$var wire 32 E memoryAddress [31:0] $end
$var reg 1 F clk $end
$var reg 32 G memoryData_reg [31:0] $end
$var reg 1 H memoryReady $end
$var reg 1 I reset $end
$scope module uut $end
$var wire 1 F clk $end
$var wire 32 J memoryData [31:0] $end
$var wire 1 H memoryReady $end
$var wire 1 I reset $end
$var wire 32 K readData2 [31:0] $end
$var wire 32 L readData1 [31:0] $end
$var wire 32 M multiplierResult [31:0] $end
$var wire 32 N immediate [31:0] $end
$var wire 1 O aluZero $end
$var wire 32 P aluResult [31:0] $end
$var reg 32 Q A [31:0] $end
$var reg 32 R B [31:0] $end
$var reg 32 S aluOperand1 [31:0] $end
$var reg 32 T aluOperand2 [31:0] $end
$var reg 3 U aluOperation [2:0] $end
$var reg 32 V aluResultRegister [31:0] $end
$var reg 2 W aluSrcA [1:0] $end
$var reg 2 X aluSrcB [1:0] $end
$var reg 1 Y aluZeroRegister $end
$var reg 3 Z funct3 [2:0] $end
$var reg 7 [ funct7 [6:0] $end
$var reg 1 \ instructionOrData $end
$var reg 3 ] instructionType [2:0] $end
$var reg 32 ^ ir [31:0] $end
$var reg 1 _ irWrite $end
$var reg 32 ` memoryAddress [31:0] $end
$var reg 32 a memoryDataRegister [31:0] $end
$var reg 1 b memoryDataRegisterWrite $end
$var reg 1 D memoryEnable $end
$var reg 1 C memoryReadWrite $end
$var reg 1 c multiplierEnable $end
$var reg 32 d multiplierResultRegister [31:0] $end
$var reg 5 e nextState [4:0] $end
$var reg 7 f opcode [6:0] $end
$var reg 32 g pc [31:0] $end
$var reg 1 h pcWrite $end
$var reg 1 i registerWriteEnable $end
$var reg 2 j registerWriteSource [1:0] $end
$var reg 5 k state [4:0] $end
$var reg 1 B trap $end
$var reg 32 l writeData [31:0] $end
$scope module arithmetic_logic_unit $end
$var wire 32 m operand_1 [31:0] $end
$var wire 32 n operand_2 [31:0] $end
$var wire 3 o operation [2:0] $end
$var reg 32 p result [31:0] $end
$var reg 1 O zero $end
$upscope $end
$scope module immediate_generator $end
$var wire 32 q instruction [31:0] $end
$var wire 3 r instruction_type [2:0] $end
$var reg 32 s immediate [31:0] $end
$upscope $end
$scope module multiplier $end
$var wire 1 c enable $end
$var wire 32 t operand_1 [31:0] $end
$var wire 32 u operand_2 [31:0] $end
$var reg 1 v adjacent_jump $end
$var reg 1 w adjacent_jump_1 $end
$var reg 4 x bit_inverted_1 [3:0] $end
$var reg 4 y bit_inverted_2 [3:0] $end
$var reg 3 z carry_bits [2:0] $end
$var reg 8 { carry_status [7:0] $end
$var reg 1 | is_negative $end
$var reg 1 } is_negative_result $end
$var reg 4 ~ neg [3:0] $end
$var reg 1 !" next_adjacent_jump $end
$var reg 1 "" next_adjacent_jump_1 $end
$var reg 8 #" operand_1_complement [7:0] $end
$var reg 16 $" partial_product_0 [15:0] $end
$var reg 16 %" partial_product_1 [15:0] $end
$var reg 16 &" partial_product_2 [15:0] $end
$var reg 16 '" partial_product_3 [15:0] $end
$var reg 32 (" product [31:0] $end
$var reg 8 )" product_bits [7:0] $end
$var reg 16 *" result [15:0] $end
$var integer 32 +" i [31:0] $end
$var integer 32 ," j [31:0] $end
$upscope $end
$scope module register_file $end
$var wire 1 F clk $end
$var wire 1 -" read_enable_1 $end
$var wire 1 ." read_enable_2 $end
$var wire 5 /" read_index_1 [4:0] $end
$var wire 5 0" read_index_2 [4:0] $end
$var wire 1 I reset $end
$var wire 32 1" write_data [31:0] $end
$var wire 1 i write_enable $end
$var wire 5 2" write_index [4:0] $end
$var reg 32 3" read_data_1 [31:0] $end
$var reg 32 4" read_data_2 [31:0] $end
$var integer 32 5" i [31:0] $end
$upscope $end
$upscope $end
$upscope $end
$enddefinitions $end
#0
$dumpvars
b100000 5"
bz 4"
bz 3"
bz 2"
bz 1"
bz 0"
bz /"
1."
1-"
bx ,"
bx +"
bx *"
bx )"
bx ("
bx '"
bx &"
bx %"
bx $"
bx #"
x""
x!"
bx ~
x}
x|
bx {
bx z
bx y
bx x
xw
xv
bx u
bx t
bz s
bx r
bz q
bz p
bz o
bz n
bz m
bz l
b0 k
bz j
zi
zh
b0 g
bz f
b1 e
bx d
zc
xb
bx a
bz `
z_
bz ^
bx ]
x\
bz [
bz Z
xY
bz X
bz W
bx V
bz U
bz T
bz S
bx R
bx Q
bz P
0O
bz N
bx M
bz L
bz K
bz J
1I
0H
bz G
1F
bz E
0D
zC
xB
b0 A
b0 @
b0 ?
b0 >
b0 =
b0 <
b0 ;
b0 :
b0 9
b0 8
b0 7
b0 6
b0 5
b0 4
b0 3
b0 2
b0 1
b0 0
b0 /
b0 .
b0 -
b0 ,
b0 +
b0 *
b0 )
b0 (
b0 '
b0 &
b0 %
b0 $
b0 #
b0 "
bz !
$end
#2
0F
#4
b1 e
0Y
bz V
bz R
bz u
bz Q
bz t
1F
#6
0F
#8
1F
#10
0F
#12
1F
#14
0F
#16
1F
#18
0F
#20
0I
1F
#22
0F
#24
b0 E
b0 `
0\
0C
1D
b10 e
b1 k
1F
#26
0F
#28
0C
b10 e
b10 k
1F
#30
0F
#32
1F
#34
0F
#36
1F
#38
0F
#40
1F
#42
1_
0C
b11 e
1H
b10100000000010100010011 !
b10100000000010100010011 J
b10100000000010100010011 G
0F
#44
b100 T
b100 n
b0 S
b0 m
b100 P
b100 p
b0 K
b0 4"
b0 L
b0 3"
b0 U
b0 o
b1 X
b0 W
1h
0D
b0 /"
b101 0"
b1010 2"
b0 [
b0 Z
b10011 f
1_
zC
b100 e
0H
bz !
bz J
bz G
b10100000000010100010011 ^
b10100000000010100010011 q
b11 k
1F
#46
0F
#48
bz T
bz n
bz K
bz 4"
bz L
bz 3"
bz ]
bz r
b100 E
b100 `
bz S
bz m
bz P
bz p
bz X
bz W
bz U
bz o
z_
zh
b101 e
bz /"
bz 0"
bz 2"
bz [
bz Z
bz f
b100 k
b100 g
bz ^
bz q
b0 R
b0 u
b0 Q
b0 t
b100 V
1F
#50
0F
#52
bz e
bz V
bz R
bz u
bz Q
bz t
b101 k
1F
#54
0F
#56
bz k
1F
